[
    {
      "id": "1",
      "description": "Lorem ipsum dolor sit amet, per in nusquam nominavi periculis",
      "product": "Backpack",
      "price": "Rs 500",
      "color": "Red",
      "weight": {
        "kg": "0.12gr",
        "gr": "120gr"
      },
      "hiddenColumn": 1
    },
    {
      "id": "2",
      "description": "Lorem ipsum dolor sit amet, per in nusquam nominavi periculis",
      "product": "Binocular",
      "price": "Rs 600",
      "color": "Black",
      "weight": {
        "kg": "0.12gr",
        "gr": "120gr"
      },
      "hiddenColumn": 1
    },
    {
      "id": "3",
      "description": "Lorem ipsum dolor sit amet, per in nusquam nominavi periculis",
      "product": "chucks",
      "price": "Rs 7500",
      "color": "White & Black",
      "weight": {
        "kg": "0.12gr",
        "gr": "120gr"
      },
      "hiddenColumn": 1
    },
    {
      "id": "4",
      "description": "Lorem ipsum dolor sit amet, per in nusquam nominavi periculis",
      "product": "helmet",
      "price": "Rs 8000",
      "color": "Gray",
      "weight": {
        "kg": "0.12gr",
        "gr": "120gr"
      },
      "hiddenColumn": 1
    },
    {
      "id": "5",
      "description": "Lorem ipsum dolor sit amet, per in nusquam nominavi periculis",
      "product": "lipstick",
      "price": "Rs 400",
      "color": "Red",
      "weight": {
        "kg": "0.12gr",
        "gr": "120gr"
      },
      "hiddenColumn": 1
    },
    {
      "id": "6",
      "description": "Lorem ipsum dolor sit amet, per in nusquam nominavi periculis",
      "product": "sunnies",
      "price": "Rs 300",
      "color": "Yellow",
      "weight": {
        "kg": "0.12gr",
        "gr": "120gr"
      },
      "hiddenColumn": 1
    }
  ]